memory_initialization_radix = 2;
memory_initialization_vector =
1111111111111111111111111111111111111111111111111111111111111111,
1111111111111111111111111111111111111111111111111111111111111111,
1111111111111111111111111111111111111111111111111111111111111111,
1111111111111111111111111111111111111111111111111111111111111111,
1111111111111111111111111111111111111111111111111111111111111111,
1111111111111111111111111111111111111111111111111111111111111111,
1111111111111111111111111111111111111111111111111111111111111111,
1111111111111111111111111111111111111111111111111111111111111111,
1111111111111111111111111111111111111111111111111111111111111111,
1111111111111111111111111111111111111111111111111111111111111111,
1111111111111111111111111111111111111111111111111111111111111111,
1111111111111111111111111111111111111111111111111111111111111111,
1111111111111111111111111111111111111111111111111111111111111111,
1111111111111111111111111111111111111111111111111111111111111111,
1111111111111111111111111111111111111111111111111111111111111111,
1111111111111111111111111111010000000000000101111111111111111111,
1111111111111111111111111110000000000000000000111111111111111111,
1111111111111111111111111100000000000000000000011111111111111111,
1111111111111111111111110000000111111111110000000111111111111111,
1111111111111111111111100000111111111111111110000011111111111111,
1111111111111111111111000001111111111111111111000001111111111111,
1111111111111111111110000111111111111111111111110000111111111111,
1111111111111111111100001111111111111111111111111000011111111111,
1111111111111111111000011111111111111111111111111100001111111111,
1111111111111111110000111111111111111111111111111110000111111111,
1111111111111111110001111111111111111111111111111111000111111111,
1111111111111111100001111111111111111111111111111111000011111111,
1111111111111111100011111111111111111111111111111111100011111111,
1111111111111111000111111111111111111111111111111111110001111111,
1111111111111111000111111111111111111111111111111111110001111111,
1111111111111110000111111111111111111111111111111111110000111111,
1111111111111110001111111111111111111111111111111111111000111111,
1111111111111110001111111111111111111111111111111111111000111111,
1111111111111110001111111111111111111111111111111111111000111111,
1111111111111110001111111111111111111111111111111111111000111111,
1111111111111110001111111111111111111111111111111111111000111111,
1111111111111110001111111111111111111111111111111111111000111111,
1111111111111110001111111111111111111111111111111111111000111111,
1111111111111110001111111111111111111111111111111111111000111111,
1111111111111110001111111111111111111111111111111111111000111111,
1111111111111110001111111111111111111111111111111111111000111111,
1111111111111110001111111111111111111111111111111111111000111111,
1111111111111110000111111111111111111111111111111111110000111111,
1111111111111111000111111111111111111111111111111111110001111111,
1111111111111111000111111111111111111111111111111111110001111111,
1111111111111111100011111111111111111111111111111111100011111111,
1111111111111111100001111111111111111111111111111111000011111111,
1111111111111111110001111111111111111111111111111111000111111111,
1111111111111111110000111111111111111111111111111110000111111111,
1111111111111111111000011111111111111111111111111100001111111111,
1111111111111111111100001111111111111111111111111000011111111111,
1111111111111111111110000111111111111111111111110000111111111111,
1111111111111111111111000000111111111111111110000001111111111111,
1111111111111111111111100000011111111111111100000011111111111111,
1111111111111111111111110000000111111111110000000111111111111111,
1111111111111111111111111100000000000000000000011111111111111111,
1111111111111111111111111111000000000000000001111111111111111111,
1111111111111111111111111111110000000000000111111111111111111111,
1111111111111111111111111111111111111111111111111111111111111111,
1111111111111111111111111111111111111111111111111111111111111111,
1111111111111111111111111111111111111111111111111111111111111111,
1111111111111111111111111111111111111111111111111111111111111111,
1111111111111111111111111111111111111111111111111111111111111111,
1111111111111111111111111111111111111111111111111111111111111111;
