memory_initialization_radix = 2;
memory_initialization_vector =
1111111111111111111111111111111111111111111111111111111111111111,
1111111111111111111111111111111111111111111111111111111111111111,
1111111111111111111111111111111111111111111111111111111111111111,
1111111111111111111111111111111111111111111111111111111111111111,
1111111111111111111111111111111111111111111111111111111111111111,
1111111111111111111111111111111111111111111111111111111111111111,
1111111111111111111111111111111111111111111111111111111111111111,
1111111111111111111111111111111111111111111111111111111111111111,
1111111111111111111111111111111111111111111111111111111111111111,
1111111111111111111111111111111111111111111111111111111111111111,
1111111111111111111111111111111111111111111111111111111111111111,
1111111111111111111111111111111111111111111111111111111111111111,
1111111111111111111111111111111111111111111111111111111111111111,
1111111111111111111111111111111111111111111111111111111111111111,
1111111111111111111111111111100000001111111111111111111111111111,
1111111111111111111111111111000000000111111111111111111111111111,
1111111111111111111111111110000000000011111111111111111111111111,
1111111111111111111111111100001111100001111111111111111111111111,
1111111111111111111111111000011111110000111111111111111111111111,
1111111111111111111111111000111111111000111111111111111111111111,
1111111111111111111111111000111111111000111111111111111111111111,
1111111111111111111111111000111111111000111111111111111111111111,
1111111111111111111111111000111111111000111111111111111111111111,
1111111111111111111111111000111111111000111111111111111111111111,
1111111111111111111111111000011111110000111111111111111111111111,
1111111111111111111111111100001111100001111111111111111111111111,
1111111111111111111111111110000000000011111111111111111111111111,
1111111111111111111111111111000000000111111111111111111111111111,
1111111111111111111111111111100000001111111111111111111111111111,
1111111111111111111111111111111111111111111111111111111111111111,
1111111111111111111111111111111111111111111111111111111111111111,
1111111111111111111111111111111111111111111111111111111111111111,
1111111111111111111111111111111111111111111111111111111111111111,
1111111111111111111111111111111111111111111111111111111111111111,
1111111111111111111111111111111111111111111111111111111111111111,
1111111111111111111111111111111111111111111111111111111111111111,
1111111111111111111111111111111111111111111111111111111111111111,
1111111111111111111111111111111111111111111111111111111111111111,
1111111111111111111111111111111111111111111111111111111111111111,
1111111111111111111111111111111111111111111111111111111111111111,
1111111111111111111111111111111111111111111111111111111111111111,
1111111111111111111111111111111111111111111111111111111111111111,
1111111111111111111111111111111111111111111111111111111111111111,
1111111111111111111111111111111111111111111111111111111111111111,
1111111111111111111111111111111111111111111111111111111111111111,
1111111111111111111111111111111111111111111111111111111111111111,
1111111111111111111111111111111111111111111111111111111111111111,
1111111111111111111111111111111111111111111111111111111111111111,
1111111111111111111111111111111111111111111111111111111111111111,
1111111111111111111111111111111111111111111111111111111111111111,
1111111111111111111111111111111111111111111111111111111111111111,
1111111111111111111111111111111111111111111111111111111111111111,
1111111111111111111111111111111111111111111111111111111111111111,
1111111111111111111111111111111111111111111111111111111111111111,
1111111111111111111111111111111111111111111111111111111111111111,
1111111111111111111111111111111111111111111111111111111111111111,
1111111111111111111111111111111111111111111111111111111111111111,
1111111111111111111111111111111111111111111111111111111111111111,
1111111111111111111111111111111111111111111111111111111111111111,
1111111111111111111111111111111111111111111111111111111111111111,
1111111111111111111111111111111111111111111111111111111111111111,
1111111111111111111111111111111111111111111111111111111111111111,
1111111111111111111111111111111111111111111111111111111111111111,
1111111111111111111111111111111111111111111111111111111111111111;
