memory_initialization_radix = 2;
memory_initialization_vector =
1111111111111111111111111111111111111111111111111111111111111111,
1111111111111111111111111111111111111111111111111111111111111111,
1111111111111111111111111111111111111111111111111111111111111111,
1111111111111111111111111111111111111111111111111111111111111111,
1111111111111111111111111111111111111111111111111111111111111111,
1111111111111111111111111111111111111111111111111111111111111111,
1111111111111111111111111111111111111111111111111111111111111111,
1111111111111111111111111111111111111111111111111111111111111111,
1111111111111111111111111111111111111111111111111111111111111111,
1111111111111111111111111111111111111111111111111111111111111111,
1111111111111111111111111111111111111111111111111111111111111111,
1111111111111111111111111111111111111111111111111111111111111111,
1111111111111111111111111111111111111111111111111111111111111111,
1111111111111111111111111111111111111111111111111111111111111111,
1111111111111111111111111111111111111111111111111111111111111111,
1111111111111111111111111111111111111111111111111111111111111111,
1111111111111111111111111111111111111111111111111111111111111111,
1111111111111111111111111111111111111111111111111111111111111111,
1111111111111111111111111111111111111111111111111111111111111111,
1111111111111111111111111111111111111111111111111111111111111111,
1111111111111111111111111111111111111111111111111111111111111111,
1111111111111111111111111111111111111111111111111111111111111111,
1111111111111111111111111111111111111111111111111111111111111111,
1111111111111111111111111111111111111111111111111111111111111111,
1111111111111111111111111111111111111111111111111111111111111111,
1111111111111111111111111111111111111111111111111111111111111111,
1111111111111111111111111111111111111111111111111111111111111111,
1111111111111111111111111111111111111111111111111111111111111111,
1111111111111111111111111111111111111111111111111111111111111111,
1111111111111111111110000000000001111111111111111111111111111111,
1111111111111111111110000000000001111111111111111111111111111111,
1111111111111111111110000000000001111111111111111111111111111111,
1111111111111111111110000111100001111111111111111111111111111111,
1111111111111111111110000111100001111111111111111111111111111111,
1111111111111111111110000111100001111111111111111111111111111111,
1111111111111111111110000111100001111111111111111111111111111111,
1111111111111111111110000111100001111111111111111111111111111111,
1111111111111111111110000111100001111111111111111111111111111111,
1111111111111111111110000111100001111111111111111111111111111111,
1111111111111111111110000111100001111111111111111111111111111111,
1111111111111111111110000111100001111111111111111111111111111111,
1111111111111111111110000111100001111111111111111111111111111111,
1111111111111111111110000111100001111111111111111111111111111111,
1111111111111111111110000111100001111111111111111111111111111111,
1111111111111111111110000111100001111111111111111111111111111111,
1111111111111111111110000111100001111111111111111111111111111111,
1111111111111111111110000111100001111111111111111111111111111111,
1111111111111111111110000111100001111111111111111111111111111111,
1111111111111111111110000111100001111111111111111111111111111111,
1111111111111111111110000111100001111111111111111111111111111111,
1111111111111111111110000111100001111111111111111111111111111111,
1111111111111111111110000111100001111111111111111111111111111111,
1111111111111111111110000000000001111111111111111111111111111111,
1111111111111111111110000000000001111111111111111111111111111111,
1111111111111111111110000000000001111111111111111111111111111111,
1111111111111111111111111111111111111111111111111111111111111111,
1111111111111111111111111111111111111111111111111111111111111111,
1111111111111111111111111111111111111111111111111111111111111111,
1111111111111111111111111111111111111111111111111111111111111111,
1111111111111111111111111111111111111111111111111111111111111111,
1111111111111111111111111111111111111111111111111111111111111111,
1111111111111111111111111111111111111111111111111111111111111111,
1111111111111111111111111111111111111111111111111111111111111111,
1111111111111111111111111111111111111111111111111111111111111111;
